Week 3 Lab Companion: Regression for Association
…
# unnest augmented dataframe for ".fitted" and ".resid" values. Unfortunately, 
# the prediction intervals are not provided with `augment()`. We'll now assign 
# this output to the `season_mods` object, but this could have been accomplished 
# by continuing the pipeline in the previous chunk. We split up this pipeline 
# just to demonstrate how to access the different objects produced in the nest 
# workflow.
season_mods <- unnest(season_mods_nested, augmented)

# show augmented season_mods object
season_mods

# A tibble: 449 × 20
# Groups:   seasonfac [3]
   seasonfac data     model  summary    glanced  ln_nox  D2A1 A1_50 A23_400
   <fct>     <list>   <list> <list>     <list>    <dbl> <dbl> <dbl>   <dbl>
 1 Summer    <tibble> <lm>   <smmry.lm> <tibble>   3.48  3.42     0  0     
 2 Summer    <tibble> <lm>   <smmry.lm> <tibble>   3.62  3.45     0  0.156 
 3 Summer    <tibble> <lm>   <smmry.lm> <tibble>   3.81  3.46     0  0.160 
 4 Summer    <tibble> <lm>   <smmry.lm> <tibble>   3.52  3.46     0  0.160 
 5 Summer    <tibble> <lm>   <smmry.lm> <tibble>   3.59  3.47     0  0.154 
 6 Summer    <tibble> <lm>   <smmry.lm> <tibble>   3.49  3.49     0  0.0828
 7 Summer    <tibble> <lm>   <smmry.lm> <tibble>   3.53  3.51     0  0.0381
 8 Summer    <tibble> <lm>   <smmry.lm> <tibble>   3.43  3.48     0  0.0757
 9 Summer    <tibble> <lm>   <smmry.lm> <tibble>   3.55  3.47     0  0.100 
10 Summer    <tibble> <lm>   <smmry.lm> <tibble>   3.43  3.45     0  0.120 
# ℹ 439 more rows
# ℹ 11 more variables: Pop_5000 <dbl>, D2C <dbl>, Int_3000 <dbl>, D2Comm <dbl>,
#   .fitted <dbl>, .resid <dbl>, .hat <dbl>, .sigma <dbl>, .cooksd <dbl>,
#   .std.resid <dbl>, preds <list>
…
  }) %>% 
  
  # bind list of dataframes together
  reduce(cbind) %>% 
  
  # add to snapshot dataframe
  bind_cols(snapshot, .)

# inspect predictions and residuals
allseas_both %>% 
  select(seasonfac, ln_nox, matches("_fit|_lwr|_upr|_resid")) %>% 
  mutate_if(is.double, round, 3)

# A tibble: 449 × 14
   seasonfac ln_nox Summer_fit Summer_lwr Summer_upr Summer_resid Fall_fit
   <fct>      <dbl>      <dbl>      <dbl>      <dbl>        <dbl>    <dbl>
 1 Summer      3.48       3.55       3.13       3.98       -0.07      4.07
 2 Summer      3.62       3.62       3.20       4.04        0.001     4.22
 3 Summer      3.81       3.62       3.20       4.04        0.198     4.22
 4 Summer      3.52       3.61       3.19       4.03       -0.093     4.21
 5 Summer      3.60       3.6        3.18       4.02       -0.005     4.17
 6 Summer      3.49       3.55       3.13       3.97       -0.057     4.03
 7 Summer      3.53       3.49       3.07       3.91        0.044     4.39
 8 Summer      3.44       3.53       3.12       3.95       -0.099     4.53
 9 Summer      3.55       3.55       3.13       3.97       -0.003     4.56
10 Summer      3.43       3.56       3.14       3.98       -0.131     4.57
# ℹ 439 more rows
# ℹ 7 more variables: Fall_lwr <dbl>, Fall_upr <dbl>, Fall_resid <dbl>,
#   Winter_fit <dbl>, Winter_lwr <dbl>, Winter_upr <dbl>, Winter_resid <dbl>
…
