Week 8 Lab: Measurement Error
…
  # bind dataframes for each iteration together (Step III)
  bind_rows(.id = "replicate")
  
toc()

single core pure ME processing time: 0.339 sec elapsed

# see results - each predictor produces slightly different parameters of interest
result_pure_sp 

# A tibble: 70 × 7
   replicate predictor    b1   seb1 R2_W_reg R2_W_MSE exp_var
   <chr>     <chr>     <dbl>  <dbl>    <dbl>    <dbl>   <dbl>
 1 1         x          2.01 0.0310    1        1        63.5
 2 1         Berk_1     2.01 0.0721    0.241    0.241    15.5
 3 1         Berk_2     2.02 0.0482    0.496    0.496    31.7
 4 1         Berk_3     2.00 0.0375    0.747    0.747    48.0
 5 1         class_1    1.62 0.0287    0.803    0.753    79.7
 6 1         class_2    1.34 0.0272    0.664    0.501    94.3
 7 1         class_3    1.15 0.0256    0.570    0.256   110. 
 8 2         x          1.98 0.0309    1        1        65.7
 9 2         Berk_1     2.00 0.0718    0.246    0.246    15.9
10 2         Berk_2     2.01 0.0485    0.495    0.495    32.0
# ℹ 60 more rows
…
