Week 1 Lab: Becoming familiar with R, RStudio, RMarkdown
…
# Now for a tidyverse option.  We will also save this version in case we want to
# use tidverse commands.

# Now lets make the data frame into a tibble Tibbles are tidyverse 
# dataframes with some extra functionality and a friendly display. Occasionally 
# you will run into functions that will work with "data.frame" objects but not 
# "tibble" objects. 
# (The parentheses surrounding the command tell R to print the result of the 
#assignment.)
(annual <- as_tibble(annual)) 

# A tibble: 2,472 × 7
   location longitude latitude variable     annual              value prediction
   <chr>        <dbl>    <dbl> <chr>        <chr>               <dbl>      <dbl>
 1 MC0126       -122.     47.6 co2_umol_mol mean_of_win_medians  430.       435.
 2 MS0007       -122.     47.6 co2_umol_mol mean_of_win_medians  427.       427.
 3 MS0028       -122.     47.6 co2_umol_mol mean_of_win_medians  433.       431.
 4 MS0097       -122.     47.6 co2_umol_mol mean_of_win_medians  431.       434.
 5 MS0116       -122.     47.6 co2_umol_mol mean_of_win_medians  434.       436.
 6 MS0128       -122.     47.6 co2_umol_mol mean_of_win_medians  440.       449.
 7 MS0132       -122.     47.6 co2_umol_mol mean_of_win_medians  433.       428.
 8 MS0160       -122.     47.7 co2_umol_mol mean_of_win_medians  429.       432.
 9 MS0178       -122.     47.8 co2_umol_mol mean_of_win_medians  435.       422.
10 MS0182       -122.     47.7 co2_umol_mol mean_of_win_medians  438.       431.
# ℹ 2,462 more rows
…
mutate(my_dataset, ln_variable = log(variable) ) creates the natural log-transformed variable in the DEMS data frame.

mutate(my_dataset, log10_variable = log10(variable) ) creates the base 10 log-transformed variable in the DEMS data frame.

Note that mutate adds the new variables to the end of the dataset. For more functions you can use with mutate to create new variables, see R4DS pp. 56-58.

#-----transform vars------

# The following two variables will be added to the dataset at the end. We are not saving these here, just showing the output
annual %>% 
  mutate(ln_value = log(value), 
         log10_value = log10(value) )

# A tibble: 2,472 × 5
   location variable     value ln_value log10_value
   <chr>    <chr>        <dbl>    <dbl>       <dbl>
 1 MC0126   co2_umol_mol  430.     6.06        2.63
 2 MS0007   co2_umol_mol  427.     6.06        2.63
 3 MS0028   co2_umol_mol  433.     6.07        2.64
 4 MS0097   co2_umol_mol  431.     6.07        2.63
 5 MS0116   co2_umol_mol  434.     6.07        2.64
 6 MS0128   co2_umol_mol  440.     6.09        2.64
 7 MS0132   co2_umol_mol  433.     6.07        2.64
 8 MS0160   co2_umol_mol  429.     6.06        2.63
 9 MS0178   co2_umol_mol  435.     6.07        2.64
10 MS0182   co2_umol_mol  438.     6.08        2.64
# ℹ 2,462 more rows
…
